2016-09-07 16:36:26
0; accept; False; -32980,7597885132
1; accept; False; -31981,1594543457
2; accept; False; -30980,7534866333
4; accept; False; -29980,7850723267
7; accept; False; -9980,40092849731
8; accept; False; -9979,10629463196
11; accept; False; -9975,05557250977
12; accept; True; 31,0069026947021
13; accept; True; 24,8405055999756
15; accept; True; 25,3447513580322
16; accept; True; 23,4340057373047
21; accept; True; 25,6426429748535
25; accept; True; 23,4259490966797
36; accept; True; 25,6046562194824
43; accept; True; 25,3641681671143
44; accept; True; 27,493537902832
46; accept; True; 25,8923244476318
55; accept; True; 23,5508556365967
58; accept; True; 25,5320816040039
63; accept; True; 30,993278503418
64; accept; True; 25,3195381164551
69; accept; True; 30,7881717681885
70; accept; True; 30,3993606567383
74; accept; True; 29,8918895721436
75; accept; True; 29,0416889190674
78; accept; True; 35,6254463195801
79; accept; True; 30,7319450378418
80; accept; True; 26,6728210449219
81; accept; True; 30,5237522125244
83; accept; True; 30,7985858917236
84; accept; True; 30,756986618042
85; accept; True; 30,7773208618164
86; accept; True; 30,8024864196777
89; accept; True; 30,5102519989014
91; accept; True; 32,5993156433105
93; accept; True; 30,8263206481934
94; accept; True; 36,5318336486816
96; accept; True; 29,9603900909424
98; accept; True; 30,2197189331055
100; accept; True; 29,8732414245605
101; accept; True; 31,8668193817139
103; accept; True; 31,4210681915283
104; accept; True; 30,6810646057129
105; accept; True; 30,1580410003662
110; accept; True; 30,8805503845215
111; accept; True; 30,7182750701904
112; accept; True; 30,6923809051514
114; accept; True; 30,1646518707275
115; accept; True; 30,634822845459
116; accept; True; 30,2439422607422
117; accept; True; 30,6734580993652
120; accept; True; 30,9417572021484
122; accept; True; 29,961540222168
123; accept; True; 30,6670475006104
125; accept; True; 30,4150638580322
127; accept; True; 30,8714199066162
128; accept; True; 30,8571453094482
129; accept; True; 30,5657844543457
130; accept; True; 30,9014511108398
132; accept; True; 30,9565181732178
134; accept; True; 22,6227970123291
136; accept; True; 22,7712497711182
137; accept; False; 3,40282346638529E+38
138; accept;True;36,5318336486816
2016-09-07 16:53:40