2016-09-07 17:20:04
0;accept;True; 33,0615921020508
1;accept;True; 34,029483795166
2;accept;True; 30,7341976165771
5;accept;True; 33,9621162414551
7;accept;True; 33,8354301452637
10;accept;True; 30,6674060821533
11;accept;True; 33,9623603820801
13;accept;True; 29,7958755493164
15;accept;True; 30,703800201416
18;accept;True; 29,2780818939209
21;accept;True; 29,3220138549805
22;accept;True; 29,2540378570557
24;accept;True; 33,9724540710449
25;accept;True; 33,8391532897949
26;accept;True; 30,0566864013672
30;accept;True; 33,9971313476563
31;accept;True; 30,6941947937012
32;accept;True; 30,1910381317139
36;accept;True; 34,308780670166
37;accept;True; 32,6499671936035
40;accept;True; 33,9675827026367
43;accept;True; 33,8133392333984
48;accept;True; 9,91024112701416
51;accept;True; 33,0847434997559
53;accept;True; 30,3632888793945
55;accept;True; 30,152660369873
56;accept;True; 30,2597389221191
57;accept;True; 30,8774223327637
59;accept;True; 31,4828929901123
62;accept;True; 33,6510848999023
65;accept;True; 10,1032285690308
67;accept;True; 17,8027095794678
69;accept;True; 19,5551166534424
78;accept;True; 18,6094131469727
85;accept;True; 30,6606178283691
87;accept;True; 30,1867523193359
88;accept;True; 30,2311344146729
91;accept;True; 31,3942966461182
92;accept;True; 30,0478572845459
94;accept;True; 25,5911998748779
95;accept;True; 20,0133438110352
96;accept;True; 34,0989379882813
98;accept;True; 30,5347309112549
100;accept;True; 33,9265022277832
103;accept;True; 34,0115242004395
107;accept;True; 31,642162322998
108;accept;True; 30,7088432312012
109;accept;True; 34,047435760498
110;accept;True; 34,0890922546387
116;accept;True; 33,9430694580078
118;accept;True; 33,4457969665527
122;accept;True; 33,9180793762207
123;accept;True; 33,5136756896973
126;accept;True; 33,9067687988281
128;accept;True; 34,1546058654785
129;accept;True; 31,1543083190918
132;accept;True; 31,4623508453369
134;accept;True; 30,0600700378418
142;accept;True; 30,6930408477783
143;accept;True; 30,5536479949951
144;accept;True; 33,9104804992676
145;accept;True; 29,8531284332275
146;accept;True; 31,646203994751
147;accept;True; 29,484302520752
149;accept;True; 32,8368606567383
151;accept;True; 29,9480056762695
154;accept;True; 34,1445579528809
155;accept;True; 29,5191421508789
156;accept;True; 30,3482475280762
158;accept;True; 29,9930419921875
159;accept;True; 30,3798580169678
161;accept;True; 29,4853668212891
163;accept;True; 30,1676940917969
164;accept;True; 30,1483154296875
167;accept;True; 32,0603446960449
168;accept;True; 30,4753875732422
171;accept;True; 29,9796371459961
176;accept;True; 30,7140865325928
178;accept;True; 29,8804035186768
180;accept;True; 31,9343414306641
181;accept;True; 30,5919990539551
182;accept;True; 30,1866149902344
183;accept;True; 30,9988288879395
187;accept;True; 30,2049598693848
188;accept;True; 29,8896751403809
189;accept;True; 30,2360668182373
190;accept;True; 31,2477111816406
192;accept;True; 30,161994934082
193;accept;True; 30,2823219299316
196;accept;True; 30,1372318267822
199;accept;True; 30,6938972473145
200;accept;True; 35,8733329772949
202;accept;True; 30,5278511047363
206;accept;True; 29,7499942779541
208;accept;True; 29,8761901855469
211;accept;True; 29,886079788208
213;accept;True; 31,0570812225342
215;accept;True; 31,2260284423828
216;accept;True; 30,2558860778809
218;accept;True; 30,7682018280029
219;accept;True; 30,5942268371582
220;accept;True; 30,5891380310059
222;accept;True; 30,7491760253906
223;accept;True; 30,1542549133301
232;accept;True; 35,5396995544434
242;accept;True; 30,2723484039307
247;accept;True; 31,4798164367676
248;accept;True; 30,16432762146
249;accept;True; 30,3854579925537
252;accept;True; 30,4902477264404
256;accept;True; 17,9831085205078
259;accept;True; 29,781322479248
261;accept;True; 31,5316543579102
262;accept;True; 30,7786445617676
263;accept;True; 28,914436340332
265;accept;True; 29,887731552124
266;accept;True; 30,2471332550049
271;accept;True; 30,1295108795166
273;accept;True; 29,285041809082
275;accept;True; 30,2542018890381
276;accept;True; 30,5438747406006
280;accept;True; 31,2994384765625
286;accept;True; 33,721076965332
287;accept;True; 33,8374252319336
290;accept;True; 34,0412788391113
293;accept;True; 33,1977386474609
298;accept;True; 33,9095115661621
299;accept;True; 34,4679679870605
300;accept;True; 30,2865257263184
304;accept;True; 31,0935764312744
308;accept;True; 31,0801582336426
310;accept;True; 30,9041442871094
311;accept;True; 30,6009845733643
312;accept;True; 29,3756790161133
313;accept;True; 30,5360088348389
314;accept;True; 30,248254776001
315;accept;True; 30,0903072357178
318;accept;True; 30,9783992767334
319;accept;True; 29,9540405273438
323;accept;True; 30,1140327453613
325;accept;True; 30,7313442230225
328;accept;True; 30,4920883178711
331;accept;True; 30,242208480835
333;accept;True; 31,0518608093262
336;accept;True; 34,1643371582031
338;accept;True; 29,4715347290039
343;accept;True; 30,3843955993652
345;accept;True; 31,9527816772461
349;accept;True; 33,9040260314941
350;accept;True; 33,9289360046387
352;accept;True; 33,7565040588379
354;accept;True; 33,7736968994141
356;accept;True; 33,2564010620117
357;accept;True; 33,1677703857422
358;accept;True; 34,002857208252
360;accept;True; 30,7169437408447
363;accept;True; 29,3651084899902
364;accept;True; 29,1585159301758
367;accept;True; 29,2019596099854
368;accept;True; 28,8076934814453
369;accept;True; 30,7088432312012
372;accept;True; 28,9413661956787
373;accept;True; 29,9689636230469
374;accept;True; 31,0765495300293
378;accept;True; 30,437047958374
381;accept;True; 29,95973777771
383;accept;True; 30,4491024017334
384;accept;True; 30,3292846679688
385;accept;True; 30,5204639434814
386;accept;True; 30,2809600830078
387;accept;True; 30,0586643218994
388;accept;True; 34,3097953796387
391;accept;True; 29,8100528717041
392;accept;True; 30,3903007507324
393;accept;True; 30,3002071380615
397;accept;True; 33,7530708312988
398;accept;True; 30,1037311553955
406;accept;True; 30,142068862915
407;accept;True; 34,5115737915039
409;accept;True; 34,1015472412109
410;accept;True; 38,2034759521484
417;accept;True; 33,5672454833984
422;accept;True; 33,8901748657227
424;accept;True; 33,9588813781738
426;accept;True; 33,9582252502441
427;accept;True; 30,4448776245117
428;accept;True; 29,7100315093994
430;accept;True; 29,8360824584961
434;accept;True; 30,6689434051514
435;accept;True; 30,5758228302002
437;accept;True; 30,7310752868652
439;accept;True; 31,0517120361328
441;accept;True; 30,4545459747314
442;accept;True; 30,6145477294922
444;accept;True; 30,5715255737305
448;accept;True; 30,6194267272949
451;accept;True; 30,3847503662109
456;accept;True; 29,4327411651611
460;accept;True; 31,1848201751709
461;accept;True; 30,942834854126
462;accept;True; 30,1782550811768
469;accept;True; 33,7409286499023
470;accept;True; 34,0061569213867
471;accept;True; 25,0219345092773
472;accept;True; 30,319019317627
476;accept;True; 30,2178344726563
477;accept;True; 30,0532550811768
478;accept;True; 30,5748119354248
480;accept;True; 31,9766654968262
491;accept;True; 35,0062217712402
496;accept;True; 26,2006092071533
499;accept;True; 31,407341003418
500;accept;True; 32,2654190063477
501;accept;True; 35,555793762207
508;accept;True; 33,5840034484863
509;accept;True; 30,5356330871582
510;accept;True; 34,0352935791016
511;accept;True; 32,8698616027832
518;accept;True; 29,9520435333252
520;accept;True; 33,9772071838379
522;accept;True; 30,6896781921387
523;accept;True; 30,3526153564453
524;accept;True; 30,1691074371338
525;accept;True; 28,7221698760986
526;accept;True; 30,0470275878906
531;accept;True; 31,0291442871094
532;accept;True; 33,9569206237793
536;accept;True; 34,4074401855469
540;accept;True; 33,3161888122559
541;accept;True; 29,8039398193359
543;accept;True; 33,4274063110352
546;accept;True; 33,1740188598633
549;accept;True; 30,6418724060059
551;accept;True; 29,65207862854
552;accept;True; 29,9185447692871
555;accept;True; 28,8839378356934
558;accept;True; 30,5536479949951
559;accept;True; 30,4859600067139
560;accept;True; 30,5717792510986
563;accept;True; 30,3823909759521
564;accept;True; 30,5614395141602
565;accept;True; 30,2497119903564
566;accept;True; 30,0414371490479
567;accept;True; 29,5922718048096
572;accept;True; 32,3886108398438
576;accept;True; 32,4256706237793
577;accept;True; 32,7678756713867
581;accept;True; 33,5291862487793
583;accept;True; 29,5209712982178
585;accept;True; 29,8729038238525
586;accept;True; 30,0913619995117
587;accept;True; 30,0536708831787
589;accept;True; 30,1266212463379
590;accept;True; 29,6172924041748
592;accept;True; 30,0344142913818
594;accept;True; 29,7633438110352
601;accept;True; 29,7611293792725
602;accept;True; 29,0329513549805
603;accept;True; 30,5677394866943
606;accept;True; 29,409200668335
608;accept;True; 29,4533042907715
612;accept;True; 30,0340023040771
614;accept;True; 31,3112487792969
615;accept;True; 31,1403160095215
622;accept;True; 30,1539306640625
623;accept;True; 29,7502708435059
624;accept;True; 30,6240558624268
626;accept;True; 29,9696674346924
627;accept;True; 30,263879776001
631;accept;True; 28,6970844268799
633;accept;True; 30,59690284729
635;accept;True; 29,9159870147705
639;accept;True; 35,2304534912109
640;accept;True; 29,2054824829102
641;accept;True; 30,5511379241943
646;accept;True; 25,881420135498
648;accept;True; 33,9503974914551
652;accept;True; 33,9386787414551
653;accept;True; 34,0813674926758
654;accept;True; 32,367790222168
656;accept;True; 34,0359573364258
658;accept;True; 34,3430671691895
659;accept;True; 33,9024124145508
661;accept;True; 30,7313442230225
663;accept;True; 32,0487022399902
664;accept;True; 33,8837471008301
666;accept;True; 35,2715225219727
669;accept;True; 33,981143951416
670;accept;True; 34,0293197631836
672;accept;True; 30,1839351654053
673;accept;True; 30,5019245147705
677;accept;True; 30,8637142181396
678;accept;True; 30,3227062225342
679;accept;True; 30,1326179504395
680;accept;True; 30,1061706542969
682;accept;True; 30,4871845245361
688;accept;True; 30,3927841186523
689;accept;True; 29,7062435150146
693;accept;True; 29,8452339172363
695;accept;True; 30,3765048980713
697;accept;True; 29,8734836578369
701;accept;True; 30,4431896209717
702;accept;True; 31,2828502655029
705;accept;True; 29,6051788330078
706;accept;True; 30,2267112731934
708;accept;True; 35,364387512207
718;accept;True; 29,3893547058105
719;accept;True; 30,1144599914551
720;accept;True; 30,65407371521
722;accept;True; 29,8628749847412
723;accept;True; 29,6320877075195
725;accept;True; 31,9993171691895
726;accept;True; 17,8552703857422
728;accept;True; 34,1797409057617
729;accept;True; 32,1012496948242
732;accept;True; 30,9142322540283
734;accept;True; 31,4745235443115
739;accept;True; 30,7005004882813
740;accept;True; 32,621410369873
742;accept;True; 30,1773834228516
748;accept;True; 29,5631103515625
753;accept;True; 25,9136276245117
759;accept;True; 33,46630859375
760;accept;True; 29,1948585510254
761;accept;True; 35,5092735290527
765;accept;True; 30,3467922210693
767;accept;True; 30,0054988861084
771;accept;True; 30,5900287628174
773;accept;True; 30,4695987701416
778;accept;True; 29,7648220062256
780;accept;True; 30,6245708465576
787;accept;True; 30,0488948822021
790;accept;True; 29,3423557281494
791;accept;True; 30,5088310241699
792;accept;True; 30,2107543945313
796;accept;True; 30,0630416870117
798;accept;True; 29,5296363830566
805;accept;True; 29,9286060333252
806;accept;True; 30,4642467498779
809;accept;True; 30,2706527709961
810;accept;True; 29,6320877075195
813;accept;True; 35,3370475769043
815;accept;True; 31,8487339019775
818;accept;True; 31,2236633300781
821;accept;True; 37,4804840087891
822;accept;True; 34,0366249084473
833;accept;True; 38,2193832397461
835;accept;True; 30,3481903076172
839;accept;True; 32,3966674804688
840;accept;True; 33,8850326538086
844;accept;True; 33,9863967895508
853;accept;True; 32,0955085754395
854;accept;True; 33,4198989868164
855;accept;True; 30,7804126739502
858;accept;True; 30,498477935791
859;accept;True; 29,7290649414063
860;accept;True; 30,8895702362061
863;accept;True; 30,3388938903809
864;accept;True; 29,8192024230957
870;accept;True; 34,0114402770996
873;accept;True; 33,732234954834
875;accept;True; 34,0954856872559
878;accept;True; 32,8921012878418
880;accept;True; 30,1656303405762
883;accept;True; 30,8901348114014
886;accept;True; 30,8231449127197
887;accept;True; 30,7592792510986
888;accept;True; 30,2837982177734
890;accept;True; 26,1586894989014
892;accept;True; 33,4686431884766
895;accept;True; 34,4814796447754
899;accept;True; 32,7283020019531
902;accept;True; 32,0402183532715
904;accept;True; 33,8479270935059
906;accept;True; 30,4857139587402
908;accept;True; 29,9081325531006
910;accept;True; 30,0957946777344
911;accept;True; 29,8328475952148
913;accept;True; 29,7583637237549
915;accept;True; 29,6331348419189
917;accept;True; 30,3472576141357
919;accept;True; 30,484245300293
922;accept;True; 29,7138252258301
924;accept;True; 30,3333339691162
926;accept;True; 30,4608478546143
927;accept;True; 37,2106895446777
929;accept;True; 30,433801651001
931;accept;True; 30,0196075439453
934;accept;True; 30,4027442932129
935;accept;True; 32,1458473205566
939;accept;True; 30,7549648284912
940;accept;True; 34,102222442627
942;accept;True; 32,9657707214355
944;accept;True; 30,3828639984131
948;accept;True; 30,2459011077881
949;accept;True; 30,433801651001
951;accept;True; 30,1072311401367
952;accept;True; 30,7744369506836
955;accept;True; 29,9077396392822
957;accept;True; 14,5594005584717
961;accept;True; 33,6645050048828
962;accept;True; 32,2171974182129
963;accept;True; 31,1773586273193
964;accept;True; 30,4940528869629
965;accept;True; 29,8400821685791
966;accept;True; 33,5073394775391
968;accept;True; 26,5581684112549
969;accept;True; 25,8252563476563
975;accept;True; 30,5426254272461
977;accept;True; 30,9293575286865
983;accept;True; 29,9560375213623
989;accept;True; 29,6129589080811
990;accept;True; 30,2512817382813
991;accept;True; 30,6522541046143
992;accept;True; 31,1378612518311
993;accept;True; 30,9185047149658
995;accept;True; 30,5722827911377
1001;accept;True;38,2193832397461
2016-09-07 18:03:13