2016-09-07 17:04:11
0;accept;False; -29981,3621292114
1;accept;False; -29983,2906208038
2;accept;False; -19976,1239776611
3;accept;False; -19976,918422699
5;accept;False; -19976,1704368591
7;accept;False; -19981,1374225616
8;accept;False; -19979,3153057098
12;accept;False; -19979,6314163208
13;accept;False; -10974,4809379578
18;accept;False; -10973,708694458
19;accept;False; -9975,33731842041
20;accept;False; -9975,60843467712
21;accept;False; -9974,91841697693
23;accept;False; -9975,37718200684
24;accept;False; -9974,84213447571
26;accept;False; -9974,61688613892
27;accept;False; -9973,40666389465
29;accept;False; -970,867105484009
30;accept;False; -974,862754821777
32;accept;False; -974,484769821167
33;accept;False; -969,354610443115
36;accept;True; 30,5245742797852
38;accept;True; 25,606990814209
39;accept;True; 30,3461246490479
42;accept;True; 31,5215797424316
45;accept;True; 29,3000736236572
49;accept;True; 34,4291877746582
50;accept;True; 32,692138671875
51;accept;True; 32,5414772033691
53;accept;True; 29,7948951721191
54;accept;True; 30,7092742919922
56;accept;True; 30,4324817657471
60;accept;True; 33,7791404724121
64;accept;True; 30,6554088592529
65;accept;True; 31,3088989257813
69;accept;True; 29,3111629486084
71;accept;True; 35,7157554626465
72;accept;True; 30,9124889373779
76;accept;True; 30,8468341827393
79;accept;True; 31,2140235900879
88;accept;True; 25,7677116394043
89;accept;True; 29,5770263671875
94;accept;True; 31,1117610931396
97;accept;True; 30,3668174743652
98;accept;True; 29,9122524261475
99;accept;True; 31,5439147949219
100;accept;True; 29,2618942260742
104;accept;True; 30,2705955505371
107;accept;True; 30,3310775756836
108;accept;True; 30,5312118530273
109;accept;True; 30,0861988067627
110;accept;True; 30,6254730224609
112;accept;True; 32,1841812133789
118;accept;True; 31,3199310302734
120;accept;True; 30,4249858856201
125;accept;True; 30,4741058349609
129;accept;True; 30,614933013916
131;accept;True; 30,4579372406006
132;accept;True; 31,3521938323975
133;accept;True; 30,2400856018066
136;accept;True; 29,2430210113525
137;accept;True; 30,1161632537842
138;accept;True; 30,3495864868164
139;accept;True; 30,3428401947021
140;accept;True; 30,5223236083984
141;accept;True; 29,9376163482666
142;accept;True; 29,3708934783936
143;accept;True; 30,6181411743164
144;accept;True; 30,2441101074219
145;accept;True; 29,3656120300293
146;accept;True; 30,5468788146973
150;accept;True; 30,5450630187988
151;accept;True; 29,1780643463135
152;accept;True; 30,3977012634277
153;accept;True; 29,1272296905518
157;accept;True; 30,7781009674072
159;accept;True; 30,3533153533936
161;accept;True; 31,7216415405273
165;accept;True; 30,1074447631836
170;accept;True; 30,6989803314209
177;accept;True; 30,1164817810059
178;accept;True; 29,2764663696289
179;accept;True; 29,482421875
180;accept;True; 30,1218147277832
182;accept;True; 26,3336219787598
194;accept;True; 25,8744487762451
195;accept;True; 31,1489200592041
197;accept;True; 35,1249313354492
198;accept;False; 3,40282346638529E+38
199;accept;True;35,7157554626465
2016-09-07 17:14:05
199;accept;False;3,40282346638529E+38
2016-09-07 17:14:05