2016-09-13 20:09:16
0;accept;False; -43994,0403251648
7;accept;False; -33987,4832668304
8;accept;False; -32987,4867210388
11;accept;False; -32987,1674976349
12;accept;False; -31986,9495620728
13;accept;False; -31987,7964668274
14;accept;False; -22982,4674034119
16;accept;False; -21987,6486682892
20;accept;False; -20987,3198471069
21;accept;False; -20987,3204097748
22;accept;False; -20987,4646530151
23;accept;False; -10982,9140262604
25;accept;False; -10982,7146472931
26;accept;False; -977,560501098633
30;accept;False; -977,336952209473
33;accept;False; -977,484428405762
44;accept;False; -977,451442718506
45;accept;False; -977,498155593872
46;accept;False; -977,951513290405
50;accept;False; -977,65124130249
51;accept;False; -972,681104660034
55;accept;True; 27,3591976165771
57;accept;True; 22,5795612335205
65;accept;True; 22,3464374542236
67;accept;True; 22,5548629760742
69;accept;True; 22,2164993286133
70;accept;True; 22,3379440307617
72;accept;True; 22,4729194641113
75;accept;True; 22,6382122039795
76;accept;True; 22,4874744415283
78;accept;True; 22,3681774139404
81;accept;True; 22,0932140350342
84;accept;True; 26,2506771087646
86;accept;True; 22,6978721618652
87;accept;True; 27,5606136322021
89;accept;True; 31,2565860748291
96;accept;True; 27,1806755065918
100;accept;True; 27,53782081604
101;accept;True; 27,3916854858398
104;accept;True; 27,0679206848145
105;accept;True; 27,4177799224854
108;accept;True; 27,2051944732666
111;accept;True; 27,3503532409668
112;accept;True; 27,3406162261963
113;accept;True; 27,4248886108398
114;accept;True; 27,5393409729004
116;accept;True; 31,2347145080566
117;accept;True; 31,1769886016846
118;accept;True; 31,1830902099609
119;accept;True; 27,4856376647949
123;accept;True; 27,2702789306641
124;accept;False; 3,40282346638529E+38
125;accept;True;31,2565860748291
2016-09-13 20:23:41