2016-09-07 19:07:24
0;accept;False; -3966,34191894531
3;accept;False; -2965,55681610107
8;accept;False; -2968,11973571777
11;accept;False; -2963,27618408203
12;accept;False; -1969,1415271759
13;accept;False; -1968,83849716187
14;accept;False; -969,71241569519
15;accept;False; -963,242767333984
16;accept;False; -963,195281982422
18;accept;False; -963,111312866211
22;accept;True; 30,3218994140625
23;accept;True; 30,9831657409668
26;accept;True; 32,3308410644531
28;accept;True; 32,328052520752
31;accept;True; 30,9009895324707
32;accept;True; 30,9094505310059
34;accept;True; 30,046070098877
38;accept;True; 30,9786338806152
40;accept;True; 31,0821342468262
42;accept;True; 33,0368881225586
43;accept;True; 32,0216407775879
44;accept;True; 30,576566696167
45;accept;True; 33,7145462036133
46;accept;True; 30,2784633636475
48;accept;True; 30,9714622497559
50;accept;True; 29,5694942474365
53;accept;True; 31,1190643310547
54;accept;True; 30,2860145568848
57;accept;True; 32,0145492553711
59;accept;True; 30,556095123291
66;accept;True; 30,8885822296143
68;accept;True; 31,0093536376953
69;accept;True; 30,4285202026367
71;accept;True; 31,0478401184082
72;accept;True; 30,4099979400635
75;accept;True; 30,5522975921631
79;accept;True; 30,5472221374512
81;accept;True; 31,7475242614746
83;accept;True; 31,0457935333252
85;accept;True; 30,8064632415771
86;accept;True; 30,9720783233643
88;accept;True; 31,6330184936523
93;accept;True; 32,1880683898926
95;accept;True; 30,7381019592285
97;accept;True; 30,4752044677734
98;accept;True; 36,0716400146484
103;accept;True; 30,6536521911621
104;accept;True; 31,8282318115234
105;accept;True; 30,6287574768066
106;accept;True; 30,6083984375
107;accept;True; 31,3912620544434
109;accept;True; 31,0219802856445
112;accept;True; 31,0366230010986
113;accept;True; 30,808967590332
114;accept;True; 31,5042552947998
115;accept;True; 31,0842227935791
117;accept;True; 30,8804817199707
119;accept;True; 30,5193481445313
121;accept;True; 30,9330081939697
123;accept;True; 31,9864082336426
125;accept;True; 29,300178527832
127;accept;True; 30,7669830322266
129;accept;True; 30,8602886199951
131;accept;True; 30,8387088775635
132;accept;True; 30,7393741607666
138;accept;True; 35,7961921691895
139;accept;True; 29,1591854095459
141;accept;True; 30,5370063781738
142;accept;True; 31,1074314117432
143;accept;True; 30,9033641815186
145;accept;True; 30,4813709259033
152;accept;True; 31,0008792877197
153;accept;True; 30,6655445098877
156;accept;True; 33,5783081054688
157;accept;True; 30,9623718261719
158;accept;True; 30,0525798797607
161;accept;True; 30,2901096343994
162;accept;True; 30,4694156646729
165;accept;True; 30,8090362548828
166;accept;True; 30,8501758575439
170;accept;True; 30,7726058959961
176;accept;True; 30,6722145080566
177;accept;True; 31,1031856536865
178;accept;True; 30,7832679748535
179;accept;True; 29,4761772155762
182;accept;True; 30,9494533538818
183;accept;True; 30,84739112854
188;accept;True; 31,0178508758545
189;accept;True; 29,5255508422852
191;accept;True; 30,8353805541992
194;accept;True; 30,1402397155762
196;accept;True; 31,6855278015137
198;accept;True; 30,6175003051758
204;accept;True; 30,5946731567383
205;accept;True; 30,7152156829834
206;accept;True; 30,574369430542
207;accept;True; 32,1870155334473
208;accept;True; 32,5261840820313
212;accept;True; 30,9380970001221
215;accept;True; 30,6681575775146
216;accept;True; 29,2990589141846
218;accept;True; 30,7420558929443
219;accept;True; 36,2231826782227
220;accept;True; 31,592981338501
221;accept;True; 31,0136547088623
222;accept;True; 30,5773429870605
223;accept;True; 31,9798355102539
227;accept;True; 30,8360042572021
229;accept;True; 30,4604835510254
231;accept;True; 29,9907608032227
232;accept;True; 30,5878677368164
233;accept;True; 30,9163684844971
240;accept;True; 30,5820293426514
241;accept;True; 30,2791442871094
243;accept;True; 31,1535377502441
245;accept;True; 30,5174884796143
249;accept;True; 31,1056861877441
251;accept;True;36,2231826782227
2016-09-07 19:17:41
251;accept;True;31,1056861877441
2016-09-07 19:17:41